642:34:32.175828 Log continuation - Log started 2020-05-24T09:00:37.003342000Z
642:39:03.490746 GUI: UIMediumEnumerator: Medium-enumeration finished!
695:38:23.838902 GUI: UIMediumEnumerator: Medium-enumeration finished!
695:38:23.839375 Log rotated - Log started 2020-05-24T09:00:37.003342000Z
