00:00:00.324960 VirtualBox GUI VM Selector Window 6.1.18 r142142 linux.amd64 (Jan  7 2021 16:59:21) release log
00:00:00.324962 Log opened 2022-04-24T17:45:56.801085000Z
00:00:00.324963 Build Type: release
00:00:00.324966 OS Product: Linux
00:00:00.324967 OS Release: 4.19.0-20-amd64
00:00:00.324968 OS Version: #1 SMP Debian 4.19.235-1 (2022-03-17)
00:00:00.324992 DMI Product Name: OptiPlex 990
00:00:00.324999 DMI Product Version: 01
00:00:00.325009 Firmware type: BIOS
00:00:00.325051 Host RAM: 15920MB (15.5GB) total, 13101MB (12.7GB) available
00:00:00.325056 Executable: /usr/lib/virtualbox/VirtualBox
00:00:00.325056 Process ID: 11963
00:00:00.325057 Package type: LINUX_64BITS_DEBIAN_10_0
00:00:00.325083 Qt version: 5.11.3
00:00:00.352713 GUI: UIMediumEnumerator: Medium-enumeration started...
00:00:01.003078 GUI: UIDesktopWidgetWatchdog::sltHandleHostScreenAvailableGeometryCalculated: Screen 0 work area is actually resized to: 0x0 x 1680x1031
00:00:01.096708 GUI: UIMediumEnumerator: Medium-enumeration finished!
00:03:23.763049 GUI: UIMediumEnumerator: Medium with key={{5297f528-8c68-48bf-879a-9be6f45c22c8}} created
00:03:23.842683 GUI: UIMediumEnumerator: Medium-enumeration finished!
00:03:33.756888 GUI: UIMediumEnumerator: Medium-enumeration finished!
00:03:34.194457 GUI: UIMediumEnumerator: Medium-enumeration finished!
00:03:50.377533 GUI: UIMediumEnumerator: Medium-enumeration finished!
193:30:34.641062 GUI: UIMediumEnumerator: Medium-enumeration finished!
193:30:34.641103 Log rotated - Log started 2022-04-24T17:45:56.801085000Z
