00:00:00.317140 VirtualBox GUI VM Selector Window 6.1.18 r142142 linux.amd64 (Jan  7 2021 16:59:21) release log
00:00:00.317142 Log opened 2022-04-18T19:19:05.321913000Z
00:00:00.317144 Build Type: release
00:00:00.317149 OS Product: Linux
00:00:00.317151 OS Release: 4.19.0-9-amd64
00:00:00.317152 OS Version: #1 SMP Debian 4.19.118-2+deb10u1 (2020-06-07)
00:00:00.317188 DMI Product Name: OptiPlex 990
00:00:00.317199 DMI Product Version: 01
00:00:00.317214 Firmware type: BIOS
00:00:00.317276 Host RAM: 15921MB (15.5GB) total, 13247MB (12.9GB) available
00:00:00.317282 Executable: /usr/lib/virtualbox/VirtualBox
00:00:00.317283 Process ID: 24813
00:00:00.317284 Package type: LINUX_64BITS_DEBIAN_10_0
00:00:00.317323 Qt version: 5.11.3
00:00:00.348492 GUI: UIMediumEnumerator: Medium-enumeration started...
00:00:00.993901 GUI: UIDesktopWidgetWatchdog::sltHandleHostScreenAvailableGeometryCalculated: Screen 0 work area is actually resized to: 0x0 x 1680x1031
00:00:01.093257 GUI: UIMediumEnumerator: Medium-enumeration finished!
00:00:01.106347 refreshCertificates/#1: InMem.Cert.TbsCertificate.T3.Extensions.papItems[#].ExtnValue.NameConstraints.T0.PermittedSubtrees.papItems[#]: Unexpected sequence type/flags: 0x2/0x80 (expected 0x10/0x20)
00:00:01.108643 refreshCertificates/#3: Found 1/126 SSL certs we/you trust (previously 1/126).
00:00:59.326966 GUI: UIMediumEnumerator: Medium with key={{18b9cecb-ab65-4f16-9585-e6455fc2a83b}} created
00:00:59.422828 GUI: UIMediumEnumerator: Medium-enumeration finished!
00:01:21.838949 GUI: UIMediumEnumerator: Medium-enumeration finished!
00:02:12.158883 GUI: UIMediumEnumerator: Medium-enumeration finished!
00:02:12.386036 GUI: UIMediumEnumerator: Medium-enumeration finished!
00:02:12.905123 GUI: UIMediumEnumerator: Medium-enumeration finished!
00:02:12.934551 GUI: UIMediumEnumerator: Medium-enumeration finished!
