408:00:22.010352 Log continuation - Log started 2020-05-24T09:00:37.003342000Z
408:00:22.012255 refreshCertificates/#3: Found 1/127 SSL certs we/you trust (previously 1/127).
642:34:32.167816 GUI: UIMediumEnumerator: Medium-enumeration finished!
642:34:32.169138 Log rotated - Log started 2020-05-24T09:00:37.003342000Z
