84:01:33.788197 Log continuation - Log started 2022-05-08T08:17:33.729285000Z
216:00:17.742438 refreshCertificates/#1: InMem.Cert.TbsCertificate.T3.Extensions.papItems[#].ExtnValue.NameConstraints.T0.PermittedSubtrees.papItems[#]: Unexpected sequence type/flags: 0x2/0x80 (expected 0x10/0x20)
216:00:17.742945 Log rotated - Log started 2022-05-08T08:17:33.729285000Z
