00:00:00.253644 VirtualBox GUI VM Selector Window 6.1.4 r136177 linux.amd64 (Feb 18 2020 17:40:55) release log
00:00:00.253645 Log opened 2020-05-24T09:00:37.003342000Z
00:00:00.253646 Build Type: release
00:00:00.253650 OS Product: Linux
00:00:00.253651 OS Release: 4.19.0-8-amd64
00:00:00.253651 OS Version: #1 SMP Debian 4.19.98-1+deb10u1 (2020-04-27)
00:00:00.253674 DMI Product Name: OptiPlex 990
00:00:00.253681 DMI Product Version: 01
00:00:00.253691 Firmware type: BIOS
00:00:00.253730 Host RAM: 15921MB (15.5GB) total, 9929MB (9.6GB) available
00:00:00.253734 Executable: /usr/lib/virtualbox/VirtualBox
00:00:00.253735 Process ID: 22768
00:00:00.253735 Package type: LINUX_64BITS_DEBIAN_10_0
00:00:00.253759 Qt version: 5.11.3
00:00:00.279392 GUI: UIMediumEnumerator: Medium-enumeration started...
00:00:00.798897 GUI: UIMediumEnumerator: Medium-enumeration finished!
00:00:00.825416 GUI: UIDesktopWidgetWatchdog::sltHandleHostScreenAvailableGeometryCalculated: Screen 0 work area is actually resized to: 2x25 x 836x998
00:01:31.533821 GUI: UIMediumEnumerator: Medium-enumeration finished!
00:03:06.275959 GUI: UIMediumEnumerator: Medium-enumeration finished!
408:00:22.003241 refreshCertificates/#1: InMem.Cert.TbsCertificate.T3.Extensions.papItems[#].ExtnValue.NameConstraints.T0.PermittedSubtrees.papItems[#]: Unexpected sequence type/flags: 0x2/0x80 (expected 0x10/0x20)
408:00:22.004149 Log rotated - Log started 2020-05-24T09:00:37.003342000Z
