695:38:23.841162 Log continuation - Log started 2020-05-24T09:00:37.003342000Z
695:38:29.675259 GUI: UIMediumEnumerator: Medium-enumeration finished!
1080:01:00.049711 refreshCertificates/#1: InMem.Cert.TbsCertificate.T3.Extensions.papItems[#].ExtnValue.NameConstraints.T0.PermittedSubtrees.papItems[#]: Unexpected sequence type/flags: 0x2/0x80 (expected 0x10/0x20)
1080:01:00.050007 Log rotated - Log started 2020-05-24T09:00:37.003342000Z
