00:00:00.372292 VirtualBox GUI VM Selector Window 6.1.18 r142142 linux.amd64 (Jan  7 2021 16:59:21) release log
00:00:00.372294 Log opened 2022-05-08T08:17:33.729285000Z
00:00:00.372295 Build Type: release
00:00:00.372299 OS Product: Linux
00:00:00.372300 OS Release: 4.19.0-20-amd64
00:00:00.372300 OS Version: #1 SMP Debian 4.19.235-1 (2022-03-17)
00:00:00.372327 DMI Product Name: OptiPlex 990
00:00:00.372334 DMI Product Version: 01
00:00:00.372344 Firmware type: BIOS
00:00:00.372390 Host RAM: 15920MB (15.5GB) total, 9433MB (9.2GB) available
00:00:00.372397 Executable: /usr/lib/virtualbox/VirtualBox
00:00:00.372398 Process ID: 32580
00:00:00.372398 Package type: LINUX_64BITS_DEBIAN_10_0
00:00:00.372426 Qt version: 5.11.3
00:00:00.428886 GUI: UIMediumEnumerator: Medium-enumeration started...
00:00:01.226371 GUI: UIDesktopWidgetWatchdog::sltHandleHostScreenAvailableGeometryCalculated: Screen 0 work area is actually resized to: 0x0 x 1680x1031
00:00:01.234974 GUI: UIMediumEnumerator: Medium-enumeration finished!
00:01:20.475492 GUI: UIMediumEnumerator: Medium-enumeration finished!
00:01:23.251564 GUI: UIMediumEnumerator: Medium-enumeration finished!
84:01:33.787901 GUI: UIMediumEnumerator: Medium-enumeration finished!
84:01:33.787949 Log rotated - Log started 2022-05-08T08:17:33.729285000Z
