431:16:38.465790 nspr-3   Log continuation - Log started 2022-05-08T08:17:33.543623000Z
432:40:04.145264 nspr-2   Saving settings file "/home/oxo/VirtualBox VMs/Windows Cordel/Windows Cordel.vbox" with version "1.15-linux"
432:40:04.145456 nspr-2   Log rotated - Log started 2022-05-08T08:17:33.543623000Z
