216:00:18.408889 nspr-6   Log continuation - Log started 2022-05-08T08:17:33.543623000Z
216:00:18.416379 nspr-5   Saving settings file "/home/oxo/.config/VirtualBox/VirtualBox.xml" with version "1.12-linux"
240:00:19.459950 nspr-4   Saving settings file "/home/oxo/.config/VirtualBox/VirtualBox.xml" with version "1.12-linux"
240:00:19.459996 nspr-4   Log rotated - Log started 2022-05-08T08:17:33.543623000Z
