192:00:17.221291 nspr-5   Log continuation - Log started 2022-05-08T08:17:33.543623000Z
192:00:17.232183 nspr-2   Saving settings file "/home/oxo/.config/VirtualBox/VirtualBox.xml" with version "1.12-linux"
216:00:18.406835 nspr-6   Saving settings file "/home/oxo/.config/VirtualBox/VirtualBox.xml" with version "1.12-linux"
216:00:18.406881 nspr-6   Log rotated - Log started 2022-05-08T08:17:33.543623000Z
