96:00:13.250807 nspr-6   Log continuation - Log started 2022-05-08T08:17:33.543623000Z
96:00:13.584965 nspr-2   Saving settings file "/home/oxo/.config/VirtualBox/VirtualBox.xml" with version "1.12-linux"
120:00:14.507913 nspr-5   Saving settings file "/home/oxo/.config/VirtualBox/VirtualBox.xml" with version "1.12-linux"
120:00:14.508882 nspr-5   Log rotated - Log started 2022-05-08T08:17:33.543623000Z
