317:28:13.177574 nspr-7   Log continuation - Log started 2022-05-08T08:17:33.543623000Z
317:28:13.198454 nspr-2   Saving settings file "/home/oxo/VirtualBox VMs/Windows Cordel/Windows Cordel.vbox" with version "1.15-linux"
431:16:38.464237 nspr-3   Saving settings file "/home/oxo/VirtualBox VMs/Windows Cordel/Windows Cordel.vbox" with version "1.15-linux"
431:16:38.465439 nspr-3   Log rotated - Log started 2022-05-08T08:17:33.543623000Z
