144:00:15.389348 nspr-8   Log continuation - Log started 2022-05-08T08:17:33.543623000Z
144:00:15.408190 nspr-3   Saving settings file "/home/oxo/.config/VirtualBox/VirtualBox.xml" with version "1.12-linux"
168:00:16.284392 nspr-4   Saving settings file "/home/oxo/.config/VirtualBox/VirtualBox.xml" with version "1.12-linux"
168:00:16.285980 nspr-4   Log rotated - Log started 2022-05-08T08:17:33.543623000Z
