120:00:14.509344 nspr-5   Log continuation - Log started 2022-05-08T08:17:33.543623000Z
120:00:14.528584 nspr-2   Saving settings file "/home/oxo/.config/VirtualBox/VirtualBox.xml" with version "1.12-linux"
144:00:15.387392 nspr-8   Saving settings file "/home/oxo/.config/VirtualBox/VirtualBox.xml" with version "1.12-linux"
144:00:15.389030 nspr-8   Log rotated - Log started 2022-05-08T08:17:33.543623000Z
