168:00:16.286283 nspr-4   Log continuation - Log started 2022-05-08T08:17:33.543623000Z
168:00:16.292532 nspr-7   Saving settings file "/home/oxo/.config/VirtualBox/VirtualBox.xml" with version "1.12-linux"
192:00:17.220914 nspr-5   Saving settings file "/home/oxo/.config/VirtualBox/VirtualBox.xml" with version "1.12-linux"
192:00:17.220960 nspr-5   Log rotated - Log started 2022-05-08T08:17:33.543623000Z
