240:00:19.460347 nspr-4   Log continuation - Log started 2022-05-08T08:17:33.543623000Z
240:00:19.472119 nspr-6   Saving settings file "/home/oxo/.config/VirtualBox/VirtualBox.xml" with version "1.12-linux"
264:00:20.213279 nspr-4   Saving settings file "/home/oxo/.config/VirtualBox/VirtualBox.xml" with version "1.12-linux"
264:00:20.213337 nspr-4   Log rotated - Log started 2022-05-08T08:17:33.543623000Z
